simulation/qsim/cnchensh.msim.vcd
$comment
	File created using the following command:
		vcd file cnchensh.msim.vcd -direction
$end
$date
	Thu Jun 14 20:11:31 2018
$end
$version
	ModelSim Version 10.5b
$end
$timescale
	1ps
$end

$scope module cnchensh_vlg_vec_tst $end
$var reg 1 ! C $end
$var reg 1 " CLK $end
$var reg 1 # IN0 $end
$var reg 1 $ IN1 $end
$var reg 1 % IN2 $end
$var reg 1 & IN3 $end
$var reg 1 ' IN4 $end
$var reg 1 ( IN5 $end
$var reg 1 ) IN6 $end
$var reg 1 * IN7 $end
$var wire 1 + ERROR $end
$var wire 1 , O1 $end
$var wire 1 - O2 $end
$var wire 1 . O3 $end
$var wire 1 / O4 $end
$var wire 1 0 O5 $end
$var wire 1 1 PRESS $end

$scope module i1 $end
$var wire 1 2 gnd $end
$var wire 1 3 vcc $end
$var wire 1 4 unknown $end
$var tri1 1 5 devclrn $end
$var tri1 1 6 devpor $end
$var tri1 1 7 devoe $end
$var wire 1 8 CLK~combout $end
$var wire 1 9 IN6~combout $end
$var wire 1 : IN5~combout $end
$var wire 1 ; IN7~combout $end
$var wire 1 < IN4~combout $end
$var wire 1 = inst33~combout $end
$var wire 1 > C~combout $end
$var wire 1 ? inst2|6~regout $end
$var wire 1 @ inst2|7~regout $end
$var wire 1 A inst2|8~regout $end
$var wire 1 B inst2|9~regout $end
$var wire 1 C inst46~1_combout $end
$var wire 1 D inst46~0_combout $end
$var wire 1 E inst46~2_combout $end
$var wire 1 F inst|6~regout $end
$var wire 1 G inst|7~regout $end
$var wire 1 H inst|8~regout $end
$var wire 1 I inst|9~regout $end
$var wire 1 J inst|45~combout $end
$var wire 1 K inst9~regout $end
$var wire 1 L inst3|84~combout $end
$var wire 1 M IN3~combout $end
$var wire 1 N inst4|8~0_combout $end
$var wire 1 O IN2~combout $end
$var wire 1 P IN1~combout $end
$var wire 1 Q inst5~regout $end
$var wire 1 R inst6~regout $end
$var wire 1 S inst4|109~3_combout $end
$var wire 1 T inst7~regout $end
$var wire 1 U inst8~regout $end
$var wire 1 V inst16|sub|84~combout $end
$var wire 1 W inst26~3_combout $end
$var wire 1 X inst28~1_combout $end
$var wire 1 Y inst28~2_combout $end
$var wire 1 Z inst26~2_combout $end
$var wire 1 [ inst25~1_combout $end
$var wire 1 \ inst1|sub|106~combout $end
$var wire 1 ] inst23~1_combout $end
$upscope $end
$upscope $end
$enddefinitions $end
#0
$dumpvars
0!
0"
1#
1$
1%
1&
1'
1(
1)
1*
1+
0,
0-
0.
0/
00
01
02
13
x4
15
16
17
08
19
1:
1;
1<
0=
0>
0?
0@
0A
0B
1C
0D
0E
0F
0G
0H
0I
0J
0K
0L
1M
0N
1O
1P
0Q
0R
0S
0T
0U
1V
0W
0X
0Y
0Z
0[
0\
0]
$end
#10000
1"
0#
0'
18
0<
0C
1=
11
1?
1F
#20000
0"
08
#30000
1#
1'
1"
1<
18
1C
0=
01
1G
0F
#40000
0"
08
#50000
0$
1"
0P
18
1F
#60000
0"
08
#70000
1$
1"
1P
18
1H
0G
0F
#80000
0"
08
#90000
0%
1"
0O
18
1S
1F
#100000
0"
08
#110000
1%
1"
1O
18
0S
1G
0F
#120000
0"
08
#130000
0&
1"
0M
18
1S
1F
#140000
0"
08
#150000
1&
1"
1M
18
0S
1I
0H
0G
0F
#160000
0"
08
#170000
0#
1"
18
1F
1J
1K
0+
#180000
0"
08
#190000
1#
1"
18
0I
0F
0J
#200000
0"
08
#210000
0$
1"
0P
18
1F
#220000
0"
08
#230000
1$
1"
1P
18
1G
0F
#240000
0"
08
#250000
0%
1"
0O
18
1S
1F
#260000
0"
08
#270000
1%
1"
1O
18
0S
1H
0G
0F
#280000
0"
08
#290000
0'
0&
1"
0<
0M
18
0C
1=
1S
1N
1L
11
1@
0?
1F
1D
1E
0K
0H
0F
0N
0L
1+
#300000
0"
08
#310000
1'
1&
1"
1<
1M
18
1C
0=
0S
01
#320000
0"
08
#330000
1"
18
#340000
0"
08
#350000
1"
18
#360000
0"
08
#370000
1"
18
#380000
0"
08
#390000
1"
18
#400000
0"
08
#410000
1"
18
#420000
0"
08
#430000
1"
18
#440000
0"
08
#450000
1"
18
#460000
0"
08
#470000
1"
18
#480000
0"
08
#490000
1"
18
#500000
0"
08
#510000
1"
18
#520000
0"
08
#530000
1"
18
#540000
0"
08
#550000
1"
18
#560000
0"
08
#570000
1"
18
#580000
0"
08
#590000
1"
18
#600000
0"
08
#610000
1"
18
#620000
0"
08
#630000
1"
18
#640000
0"
08
#650000
1"
18
#660000
0"
08
#670000
1"
18
#680000
0"
08
#690000
1"
18
#700000
0"
08
#710000
1"
18
#720000
0"
08
#730000
1"
18
#740000
0"
08
#750000
1"
18
#760000
0"
08
#770000
1"
18
#780000
0"
08
#790000
1"
18
#800000
0"
08
#810000
1"
18
#820000
0"
08
#830000
1"
18
#840000
0"
08
#850000
1"
18
#860000
0"
08
#870000
1"
18
#880000
0"
08
#890000
1"
18
#900000
0"
08
#910000
1"
18
#920000
0"
08
#930000
1"
18
#940000
0"
08
#950000
1"
18
#960000
0"
08
#970000
1"
18
#980000
0"
08
#990000
1"
18
